…
### Finding the Best Month

Following the main theme of our report, we are okay even with light rain
or snow but don’t want heavy rain, hoping to ride as many attractions as
we can in decent conditions. According to this preference, we gave each
weather_data\$weather_description a subjective score.

Then, we averaged the score, making a new temporary data frame, ‘df’.

Filter out August 2022 because there is no whole month data on August
2022.

    ## # A tibble: 1,044 × 3
    ##    DATE        wait weather
    ##    <date>     <dbl>   <dbl>
    ##  1 2018-01-01  14.4  -0.883
    ##  2 2018-01-02  23.0  -1.53 
    ##  3 2018-01-03  24.0   0.133
    ##  4 2018-01-04  22.1  -1.57 
    ##  5 2018-01-05  25.9  -1.1  
    ##  6 2018-01-06  20.8  -1.53 
    ##  7 2018-01-07  14.1  -1.13 
    ##  8 2018-01-08  14.1  -0.567
    ##  9 2018-01-09  11.5  -1.2  
    ## 10 2018-01-10  10.4  -1    
    ## # ℹ 1,034 more rows
…
